digraph svp {
        subgraph cluster_planned_io {
                planned_out [color=red]
                changes_in [color=blue]
        }
        subgraph cluster_planEnd_io {
                planEnd_in [color=blue]
                planEnd_out [color=red]
                planEnd_reset [color=blue]
                planEnd_resetE [color=purple]
                setback [color=purple]
                planEnd_reset -> planEnd_resetE [color=blue]
                planEnd_resetE -> setback [color=purple]
                setback -> planEnd_out [color=red]
        }
        subgraph cluster_timetable_io {
                timetable_in [color=blue]
                timetable_inE [color=purple]
                timetable_inSeeked [color=blue]
                timetable_inSeekedE [color=purple]
                applySeeked [color=purple]
                applyTimetabled [color=purple]
                timetableUnion [color=purple]
                timetable_inSeeked -> timetable_inSeekedE [color=blue]
                timetable_inSeekedE -> applySeeked [color=purple]
                chosenWeekPlan -> applySeeked
                applySeeked -> applyTimetabled [color=purple]
                applyTimetabled -> timetableUnion [color=purple]
                timetable_in -> timetable_inE [color=blue]
                timetable_inE -> timetableUnion [color=purple]
                chosenWeekPlanDate -> applyTimetabled
                timetable_out [color=red]
                timetable_out -> timetable_in [color=grey]
                timetable_out -> timetable_inSeeked [color=grey]
                timetableStartDates -> timetable_starts_out [color=red]
                timetable_start_in -> chosenWeekPlanDate [color=blue]
                chosenWeekPlanDate -> chosenWeekPlan
                chosenWeekPlan -> timetable_out [color=red]
                subgraph cluster_choose_timetable_io {
                        timetable_start_in [color=blue]
                        timetable_starts_out [color=red]
                        timetable_starts_out -> timetable_start_in [color=grey]
                }
        }
        subgraph cluster_topicTable_io {
                topicTable_out [color=red]
                topicTable_in [color=blue]
		topicTable_inSeeked [color=blue]
		topicTable_inE [color=purple]
		topicTable_inSeekedE [color=purple]
		applySeekedTopic [color=purple]
		applyTopicTabled [color=purple]
		topicTableUnion [color=purple]
		topicTable_in -> topicTable_inE [color=blue]
		topicTable_inSeeked -> topicTable_inSeekedE [color=blue]
		topicTable_inSeekedE -> applySeekedTopic [color=purple]
		applySeekedTopic -> applyTopicTabled [color=purple]
		applyTopicTabled -> topicTableUnion [color=purple]
		topicTable_inE -> topicTableUnion [color=purple]
                topicTable_out -> topicTable_in [color=grey]
		topicTable_out -> topicTable_inSeeked [color=grey]
                topicTableStartDates -> topicTable_starts_out [color=red]
                topicTable_start_in -> chosenTopicDate [color=blue]
                chosenTopicDate -> chosenTopic
                chosenTopic -> topicTable_out [color=red]
                subgraph cluster_choose_topicTable_io {
                        topicTable_start_in [color=blue]
                        topicTable_starts_out [color=red]
                        topicTable_starts_out -> topicTable_start_in [color=grey]
                }
        }
	topicTableUnion -> topicTable [color=purple, label="accumB"]
        schedule -> planned
        planned -> planned_out [color=red]
        past -> planned
        topicPlan -> planned
        topicTable -> topicPlan
        planEnd -> topicPlan
        planEnd -> setback
        timetable -> schedule
        planEnd -> schedule
        changes -> schedule
        timetableUnion -> timetable [label="accumB", color=purple]
        planEnd_in -> planEnd [label="stepper", color=blue]
        changes_in -> changes [label="accumB", color=blue]
        timetable -> timetableStartDates
        timetable -> chosenWeekPlan
        topicTable -> topicTableStartDates
        topicTable -> chosenTopic
        save [color=green]
        save -> past [color=green, dir=both]
        save -> timetable [color=green, dir=both]
        save -> planEnd [color=green, dir=both]
        save -> topicTable [color=green, dir=both]
        save -> changes [color=green, dir=both]
}
